{
    "server": {
        "port"   : 8889,
        "urlBase": "*/api/v1/",
        "dirApi" : "./api/v1",
        "version": "v1"
    },
    "captchaSolver": {
        "host": "http://localhost",
        "port": "3000"
    },
    "proxy":{
        "host"    : "gw.ntnt.io",
        "port"    : "5959",
        "user"    : "NegociosPublicos-cc-br",
        "password": "weo2inr3"
    },
    "dbAuditoria": {
        "database": "",
        "server"  : "",
        "user"    : "",
        "password": ""
    },
    "bucketAWS": {
        "region"       : "us-east-1",
        "directory"    : "files.cotavw.com.br/",
        "bucketName"   : "files.cotavw.com.br",
        "iamUserKey"   : "AKIAIMRMSHNKQLGYTWUQ",
        "iamUserSecret": "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"
    }
}