{
    "paginas": [
        {
            "metaDados": {
                "titulo": "LISTA DE PREÇOS - PORTADORES DE DEFICIÊNCIA FÍSICA (ISENÇÃO DE IPI)",
                "meyer": "WZ520R",
                "emissao": "010/20",
                "validade": "01/01/2020",
                "icms": "SUSPENSO IPI"
            },
            "carros": [
                {
                    "codigo": "BF1PB3",
                    "descricao": "T-CROSS SENSE 200 TSI AT 128HP",
                    "edicao": "0",
                    "valor": "65,488.06",
                    "opcionais": [
                        {
                            "sigla": "PA2",
                            "descricao": "PACOTE SKY VIEW",
                            "valor": "---------"
                        },
                        {
                            "sigla": "PA3",
                            "descricao": "PACOTE SKY VIEW II",
                            "valor": "---------"
                        },
                        {
                            "sigla": "PA4",
                            "descricao": "PACOTE DESIGN VIEW",
                            "valor": "---------"
                        },
                        {
                            "sigla": "PAJ",
                            "descricao": "PINTURA BI-COLOR I",
                            "valor": "---------"
                        },
                        {
                            "sigla": "PAN",
                            "descricao": "PINTURA BI-COLOR II",
                            "valor": "---------"
                        },
                        {
                            "sigla": "PF4",
                            "descricao": "PACOTE INTERACTIVE I",
                            "valor": "---------"
                        },
                        {
                            "sigla": "PF5",
                            "descricao": "PACOTE INTERACTIVE II",
                            "valor": "---------"
                        },
                        {
                            "sigla": "PF9",
                            "descricao": "PACOTE TECH E BEATS",
                            "valor": "---------"
                        },
                        {
                            "sigla": "L",
                            "descricao": "PINTURA PEROLIZADA",
                            "valor": "---------"
                        },
                        {
                            "sigla": "M",
                            "descricao": "PINTURA METALICA",
                            "valor": "0.00"
                        },
                        {
                            "sigla": "S",
                            "descricao": "PINTURA ESPECIAL",
                            "valor": "0.00"
                        }
                    ]
                },
                {
                    "codigo": "BF11B2",
                    "descricao": "T-CROSS 200 TSI 128HP",
                    "edicao": "1",
                    "valor": "79,523.22",
                    "opcionais": [
                        {
                            "sigla": "PA2",
                            "descricao": "PACOTE SKY VIEW",
                            "valor": "---------"
                        },
                        {
                            "sigla": "PA3",
                            "descricao": "PACOTE SKY VIEW II",
                            "valor": "---------"
                        },
                        {
                            "sigla": "PA4",
                            "descricao": "PACOTE DESIGN VIEW",
                            "valor": "---------"
                        },
                        {
                            "sigla": "PAJ",
                            "descricao": "PINTURA BI-COLOR I",
                            "valor": "---------"
                        },
                        {
                            "sigla": "PAN",
                            "descricao": "PINTURA BI-COLOR II",
                            "valor": "---------"
                        },
                        {
                            "sigla": "PF4",
                            "descricao": "PACOTE INTERACTIVE I",
                            "valor": "1609.36"
                        },
                        {
                            "sigla": "PF5",
                            "descricao": "PACOTE INTERACTIVE II",
                            "valor": "---------"
                        },
                        {
                            "sigla": "PF9",
                            "descricao": "PACOTE TECH E BEATS",
                            "valor": "---------"
                        },
                        {
                            "sigla": "L",
                            "descricao": "PINTURA PEROLIZADA",
                            "valor": "1768.43"
                        },
                        {
                            "sigla": "M",
                            "descricao": "PINTURA METALICA",
                            "valor": "1309.94"
                        },
                        {
                            "sigla": "S",
                            "descricao": "PINTURA ESPECIAL",
                            "valor": "552.04"
                        }
                    ]
                },
                {
                    "codigo": "BF12B3",
                    "descricao": "T-CROSS 200 TSI 200 TSI AT 128HP",
                    "edicao": "2",
                    "valor": "88,412.16",
                    "opcionais": [
                        {
                            "sigla": "PA2",
                            "descricao": "PACOTE SKY VIEW",
                            "valor": "---------"
                        },
                        {
                            "sigla": "PA3",
                            "descricao": "PACOTE SKY VIEW II",
                            "valor": "---------"
                        },
                        {
                            "sigla": "PA4",
                            "descricao": "PACOTE DESIGN VIEW",
                            "valor": "---------"
                        },
                        {
                            "sigla": "PAJ",
                            "descricao": "PINTURA BI-COLOR I",
                            "valor": "---------"
                        },
                        {
                            "sigla": "PAN",
                            "descricao": "PINTURA BI-COLOR II",
                            "valor": "---------"
                        },
                        {
                            "sigla": "PF4",
                            "descricao": "PACOTE INTERACTIVE I",
                            "valor": "---------"
                        },
                        {
                            "sigla": "PF5",
                            "descricao": "PACOTE INTERACTIVE II",
                            "valor": "1487.72"
                        },
                        {
                            "sigla": "PF9",
                            "descricao": "PACOTE TECH E BEATS",
                            "valor": "---------"
                        },
                        {
                            "sigla": "L",
                            "descricao": "PINTURA PEROLIZADA",
                            "valor": "1768.43"
                        },
                        {
                            "sigla": "M",
                            "descricao": "PINTURA METALICA",
                            "valor": "1309.94"
                        },
                        {
                            "sigla": "S",
                            "descricao": "PINTURA ESPECIAL",
                            "valor": "552.04"
                        }
                    ]
                },
                {
                    "codigo": "BF13B3",
                    "descricao": "T-CROSS COMFORTLINE 200 TSI AT 128HP",
                    "edicao": "2",
                    "valor": "98,657.82",
                    "opcionais": [
                        {
                            "sigla": "PA2",
                            "descricao": "PACOTE SKY VIEW",
                            "valor": "---------"
                        },
                        {
                            "sigla": "PA3",
                            "descricao": "PACOTE SKY VIEW II",
                            "valor": "4491.25"
                        },
                        {
                            "sigla": "PA4",
                            "descricao": "PACOTE DESIGN VIEW",
                            "valor": "1824.57"
                        },
                        {
                            "sigla": "PAJ",
                            "descricao": "PINTURA BI-COLOR I",
                            "valor": "---------"
                        },
                        {
                            "sigla": "PAN",
                            "descricao": "PINTURA BI-COLOR II",
                            "valor": "---------"
                        },
                        {
                            "sigla": "PF4",
                            "descricao": "PACOTE INTERACTIVE I",
                            "valor": "---------"
                        },
                        {
                            "sigla": "PF5",
                            "descricao": "PACOTE INTERACTIVE II",
                            "valor": "---------"
                        },
                        {
                            "sigla": "PF9",
                            "descricao": "PACOTE TECH E BEATS",
                            "valor": "---------"
                        },
                        {
                            "sigla": "L",
                            "descricao": "PINTURA PEROLIZADA",
                            "valor": "1768.43"
                        },
                        {
                            "sigla": "M",
                            "descricao": "PINTURA METALICA",
                            "valor": "1309.94"
                        },
                        {
                            "sigla": "S",
                            "descricao": "PINTURA ESPECIAL",
                            "valor": "552.04"
                        }
                    ]
                },
                {
                    "codigo": "BF14N3",
                    "descricao": "T-CROSS HIGHLINE 250 TSI AT 150HP",
                    "edicao": "3",
                    "valor": "102,214.16",
                    "opcionais": [
                        {
                            "sigla": "PA2",
                            "descricao": "PACOTE SKY VIEW",
                            "valor": "4304.13"
                        },
                        {
                            "sigla": "PA3",
                            "descricao": "PACOTE SKY VIEW II",
                            "valor": "---------"
                        },
                        {
                            "sigla": "PA4",
                            "descricao": "PACOTE DESIGN VIEW",
                            "valor": "---------"
                        },
                        {
                            "sigla": "PAJ",
                            "descricao": "PINTURA BI-COLOR I",
                            "valor": "1703.71"
                        },
                        {
                            "sigla": "PAN",
                            "descricao": "PINTURA BI-COLOR II",
                            "valor": "1703.71"
                        },
                        {
                            "sigla": "PF4",
                            "descricao": "PACOTE INTERACTIVE I",
                            "valor": "---------"
                        },
                        {
                            "sigla": "PF5",
                            "descricao": "PACOTE INTERACTIVE II",
                            "valor": "---------"
                        },
                        {
                            "sigla": "PF9",
                            "descricao": "PACOTE TECH E BEATS",
                            "valor": "5424.99"
                        },
                        {
                            "sigla": "L",
                            "descricao": "PINTURA PEROLIZADA",
                            "valor": "1694.75"
                        },
                        {
                            "sigla": "M",
                            "descricao": "PINTURA METALICA",
                            "valor": "1255.37"
                        },
                        {
                            "sigla": "S",
                            "descricao": "PINTURA ESPECIAL",
                            "valor": "529.04"
                        }
                    ]
                }
            ]
        },
        {
            "metaDados": {
                "titulo": "LISTA DE PREÇOS - PORTADORES DE DEFICIÊNCIA FÍSICA (ISENÇÃO DE IPI)",
                "meyer": "WZ520R",
                "emissao": "010/20",
                "validade": "01/01/2020",
                "icms": "SUSPENSO IPI"
            },
            "carros": [
                {
                    "codigo": "6A69K4",
                    "descricao": "UP 1.0 MPI 4 PORTAS",
                    "edicao": "0",
                    "valor": "46,400.23",
                    "opcionais": [
                        {
                            "sigla": "6EA",
                            "descricao": "ITEM TECNICO",
                            "valor": "0.00"
                        },
                        {
                            "sigla": "M",
                            "descricao": "PINTURA METALICA",
                            "valor": "1469.01"
                        },
                        {
                            "sigla": "S",
                            "descricao": "PINTURA ESPECIAL",
                            "valor": "0.00"
                        }
                    ]
                },
                {
                    "codigo": "6A68P4",
                    "descricao": "UP CONNECT 1.0 TSI 4 PORTAS",
                    "edicao": "0",
                    "valor": "51,359.32",
                    "opcionais": [
                        {
                            "sigla": "6EA",
                            "descricao": "ITEM TECNICO",
                            "valor": "0.00"
                        },
                        {
                            "sigla": "M",
                            "descricao": "PINTURA METALICA",
                            "valor": "1469.01"
                        },
                        {
                            "sigla": "S",
                            "descricao": "PINTURA ESPECIAL",
                            "valor": "0.00"
                        }
                    ]
                },
                {
                    "codigo": "6A67P4",
                    "descricao": "UP XTREME 1.0 TSI 4 PORTAS",
                    "edicao": "0",
                    "valor": "53,230.68",
                    "opcionais": [
                        {
                            "sigla": "6EA",
                            "descricao": "ITEM TECNICO",
                            "valor": "0.00"
                        },
                        {
                            "sigla": "M",
                            "descricao": "PINTURA METALICA",
                            "valor": "1469.01"
                        },
                        {
                            "sigla": "S",
                            "descricao": "PINTURA ESPECIAL",
                            "valor": "0.00"
                        }
                    ]
                }
            ]
        },
        {
            "metaDados": {
                "titulo": "LISTA DE PREÇOS - PORTADORES DE DEFICIÊNCIA FÍSICA (ISENÇÃO DE IPI)",
                "meyer": "WZ520R",
                "emissao": "010/20",
                "validade": "01/01/2020",
                "icms": "SUSPENSO IPI"
            },
            "carros": [
                {
                    "codigo": "5Z5KE4",
                    "descricao": "FOX 1.6 CONNECT",
                    "edicao": "0",
                    "valor": "46,619.12",
                    "opcionais": [
                        {
                            "sigla": "PRL",
                            "descricao": "PACOTE DARK II",
                            "valor": "181.13"
                        },
                        {
                            "sigla": "0KY",
                            "descricao": "ITEM TECNICO",
                            "valor": "0.00"
                        },
                        {
                            "sigla": "M",
                            "descricao": "PINTURA METALICA",
                            "valor": "1443.67"
                        },
                        {
                            "sigla": "S",
                            "descricao": "PINTURA ESPECIAL",
                            "valor": "0.00"
                        }
                    ]
                },
                {
                    "codigo": "5Z5XE4",
                    "descricao": "FOX 1.6 XTREME",
                    "edicao": "0",
                    "valor": "51,371.60",
                    "opcionais": [
                        {
                            "sigla": "PRL",
                            "descricao": "PACOTE DARK II",
                            "valor": "---------"
                        },
                        {
                            "sigla": "0KY",
                            "descricao": "ITEM TECNICO",
                            "valor": "0.00"
                        },
                        {
                            "sigla": "M",
                            "descricao": "PINTURA METALICA",
                            "valor": "1443.67"
                        },
                        {
                            "sigla": "S",
                            "descricao": "PINTURA ESPECIAL",
                            "valor": "0.00"
                        }
                    ]
                }
            ]
        },
        {
            "metaDados": {
                "titulo": "LISTA DE PREÇOS - PORTADORES DE DEFICIÊNCIA FÍSICA (ISENÇÃO DE IPI)",
                "meyer": "WZ520R",
                "emissao": "010/20",
                "validade": "01/01/2020",
                "icms": "SUSPENSO IPI"
            },
            "carros": [
                {
                    "codigo": "5U7TA4",
                    "descricao": "GOL 1.0 84HP 4P",
                    "edicao": "0",
                    "valor": "43,995.54",
                    "opcionais": [
                        {
                            "sigla": "PE5",
                            "descricao": "URBAN COMPLETO",
                            "valor": "2947.38"
                        },
                        {
                            "sigla": "PE6",
                            "descricao": "URBAN COMPLETO II - LIMITED EDITION",
                            "valor": "2947.38"
                        },
                        {
                            "sigla": "PHC",
                            "descricao": "INTERATIVIDADE MEDIA PLUS",
                            "valor": "982.46"
                        },
                        {
                            "sigla": "PHU",
                            "descricao": "INTERATIVIDADE COMPOSITION TOUCH",
                            "valor": "1964.92"
                        },
                        {
                            "sigla": "0KA",
                            "descricao": "ITEM TECNICO",
                            "valor": "0.00"
                        },
                        {
                            "sigla": "M",
                            "descricao": "PINTURA METALICA",
                            "valor": "1469.01"
                        },
                        {
                            "sigla": "S",
                            "descricao": "PINTURA ESPECIAL",
                            "valor": "458.48"
                        }
                    ]
                },
                {
                    "codigo": "5U7TE4",
                    "descricao": "GOL 1.6 104HP 4P",
                    "edicao": "0",
                    "valor": "48,017.96",
                    "opcionais": [
                        {
                            "sigla": "PE5",
                            "descricao": "URBAN COMPLETO",
                            "valor": "2824.58"
                        },
                        {
                            "sigla": "PE6",
                            "descricao": "URBAN COMPLETO II - LIMITED EDITION",
                            "valor": "2824.58"
                        },
                        {
                            "sigla": "PHC",
                            "descricao": "INTERATIVIDADE MEDIA PLUS",
                            "valor": "941.52"
                        },
                        {
                            "sigla": "PHU",
                            "descricao": "INTERATIVIDADE COMPOSITION TOUCH",
                            "valor": "1883.05"
                        },
                        {
                            "sigla": "0KA",
                            "descricao": "ITEM TECNICO",
                            "valor": "0.00"
                        },
                        {
                            "sigla": "M",
                            "descricao": "PINTURA METALICA",
                            "valor": "1407.80"
                        },
                        {
                            "sigla": "S",
                            "descricao": "PINTURA ESPECIAL",
                            "valor": "439.38"
                        }
                    ]
                },
                {
                    "codigo": "5U7TS2",
                    "descricao": "GOL 1.6 AT 120HP 4P",
                    "edicao": "0",
                    "valor": "52,115.85",
                    "opcionais": [
                        {
                            "sigla": "PE5",
                            "descricao": "URBAN COMPLETO",
                            "valor": "2824.58"
                        },
                        {
                            "sigla": "PE6",
                            "descricao": "URBAN COMPLETO II - LIMITED EDITION",
                            "valor": "2824.58"
                        },
                        {
                            "sigla": "PHC",
                            "descricao": "INTERATIVIDADE MEDIA PLUS",
                            "valor": "941.52"
                        },
                        {
                            "sigla": "PHU",
                            "descricao": "INTERATIVIDADE COMPOSITION TOUCH",
                            "valor": "1883.05"
                        },
                        {
                            "sigla": "0KA",
                            "descricao": "ITEM TECNICO",
                            "valor": "0.00"
                        },
                        {
                            "sigla": "M",
                            "descricao": "PINTURA METALICA",
                            "valor": "1407.80"
                        },
                        {
                            "sigla": "S",
                            "descricao": "PINTURA ESPECIAL",
                            "valor": "439.38"
                        }
                    ]
                }
            ]
        },
        {
            "metaDados": {
                "titulo": "LISTA DE PREÇOS - PORTADORES DE DEFICIÊNCIA FÍSICA (ISENÇÃO DE IPI)",
                "meyer": "WZ520R",
                "emissao": "010/20",
                "validade": "01/01/2020",
                "icms": "SUSPENSO IPI"
            },
            "carros": [
                {
                    "codigo": "5UGTA4",
                    "descricao": "VOYAGE 1.0 84HP",
                    "edicao": "0",
                    "valor": "51,546.46",
                    "opcionais": [
                        {
                            "sigla": "PE5",
                            "descricao": "URBAN COMPLETO",
                            "valor": "2947.38"
                        },
                        {
                            "sigla": "PE6",
                            "descricao": "URBAN COMPLETO II - LIMITED EDITION",
                            "valor": "2947.38"
                        },
                        {
                            "sigla": "PHC",
                            "descricao": "INTERATIVIDADE MEDIA PLUS",
                            "valor": "982.46"
                        },
                        {
                            "sigla": "PHU",
                            "descricao": "INTERATIVIDADE COMPOSITION TOUCH",
                            "valor": "1964.92"
                        },
                        {
                            "sigla": "0KA",
                            "descricao": "ITEM TECNICO",
                            "valor": "0.00"
                        },
                        {
                            "sigla": "M",
                            "descricao": "PINTURA METALICA",
                            "valor": "1469.01"
                        },
                        {
                            "sigla": "S",
                            "descricao": "PINTURA ESPECIAL",
                            "valor": "458.48"
                        }
                    ]
                },
                {
                    "codigo": "5UGTE4",
                    "descricao": "VOYAGE 1.6 104HP",
                    "edicao": "0",
                    "valor": "53,164.99",
                    "opcionais": [
                        {
                            "sigla": "PE5",
                            "descricao": "URBAN COMPLETO",
                            "valor": "2824.58"
                        },
                        {
                            "sigla": "PE6",
                            "descricao": "URBAN COMPLETO II - LIMITED EDITION",
                            "valor": "2824.58"
                        },
                        {
                            "sigla": "PHC",
                            "descricao": "INTERATIVIDADE MEDIA PLUS",
                            "valor": "941.52"
                        },
                        {
                            "sigla": "PHU",
                            "descricao": "INTERATIVIDADE COMPOSITION TOUCH",
                            "valor": "1883.05"
                        },
                        {
                            "sigla": "0KA",
                            "descricao": "ITEM TECNICO",
                            "valor": "0.00"
                        },
                        {
                            "sigla": "M",
                            "descricao": "PINTURA METALICA",
                            "valor": "1407.80"
                        },
                        {
                            "sigla": "S",
                            "descricao": "PINTURA ESPECIAL",
                            "valor": "439.38"
                        }
                    ]
                },
                {
                    "codigo": "5UGTS2",
                    "descricao": "VOYAGE 1.6 AT 120HP",
                    "edicao": "0",
                    "valor": "57,271.84",
                    "opcionais": [
                        {
                            "sigla": "PE5",
                            "descricao": "URBAN COMPLETO",
                            "valor": "2824.58"
                        },
                        {
                            "sigla": "PE6",
                            "descricao": "URBAN COMPLETO II - LIMITED EDITION",
                            "valor": "2824.58"
                        },
                        {
                            "sigla": "PHC",
                            "descricao": "INTERATIVIDADE MEDIA PLUS",
                            "valor": "941.52"
                        },
                        {
                            "sigla": "PHU",
                            "descricao": "INTERATIVIDADE COMPOSITION TOUCH",
                            "valor": "1883.05"
                        },
                        {
                            "sigla": "0KA",
                            "descricao": "ITEM TECNICO",
                            "valor": "0.00"
                        },
                        {
                            "sigla": "M",
                            "descricao": "PINTURA METALICA",
                            "valor": "1407.80"
                        },
                        {
                            "sigla": "S",
                            "descricao": "PINTURA ESPECIAL",
                            "valor": "439.38"
                        }
                    ]
                }
            ]
        },
        {
            "metaDados": {
                "titulo": "LISTA DE PREÇOS - PORTADORES DE DEFICIÊNCIA FÍSICA (ISENÇÃO DE IPI)",
                "meyer": "WZ520R",
                "emissao": "010/20",
                "validade": "01/01/2020",
                "icms": "SUSPENSO IPI"
            },
            "carros": [
                {
                    "codigo": "BZ12Q4",
                    "descricao": "POLO 1.0 84HP",
                    "edicao": "2",
                    "valor": "50,142.94",
                    "opcionais": [
                        {
                            "sigla": "PF1",
                            "descricao": "TECH I",
                            "valor": "---------"
                        },
                        {
                            "sigla": "PH1",
                            "descricao": "INTERATIVIDADE",
                            "valor": "---------"
                        },
                        {
                            "sigla": "PHB",
                            "descricao": "INTERATIVIDADE II",
                            "valor": "---------"
                        },
                        {
                            "sigla": "PHR",
                            "descricao": "INTERATIVIDADE",
                            "valor": "---------"
                        },
                        {
                            "sigla": "PHT",
                            "descricao": "COMFORT TECH",
                            "valor": "---------"
                        },
                        {
                            "sigla": "PN2",
                            "descricao": "CONNECT PACK II",
                            "valor": "1913.46"
                        },
                        {
                            "sigla": "PN3",
                            "descricao": "CONNECT PACK",
                            "valor": "3742.71"
                        },
                        {
                            "sigla": "PNT",
                            "descricao": "CONNECT PACK",
                            "valor": "3742.71"
                        },
                        {
                            "sigla": "1NB",
                            "descricao": "ITEM TECNICO",
                            "valor": "0.00"
                        },
                        {
                            "sigla": "1NL",
                            "descricao": "ITEM TECNICO",
                            "valor": "---------"
                        },
                        {
                            "sigla": "AW5",
                            "descricao": "ITEM TECNICO",
                            "valor": "---------"
                        },
                        {
                            "sigla": "M",
                            "descricao": "PINTURA METALICA",
                            "valor": "1469.01"
                        },
                        {
                            "sigla": "S",
                            "descricao": "PINTURA ESPECIAL",
                            "valor": "458.48"
                        }
                    ]
                },
                {
                    "codigo": "BZ12U3",
                    "descricao": "POLO 1.6 MSI AT 117HP",
                    "edicao": "2",
                    "valor": "56,805.56",
                    "opcionais": [
                        {
                            "sigla": "PF1",
                            "descricao": "TECH I",
                            "valor": "---------"
                        },
                        {
                            "sigla": "PH1",
                            "descricao": "INTERATIVIDADE",
                            "valor": "2708.01"
                        },
                        {
                            "sigla": "PHB",
                            "descricao": "INTERATIVIDADE II",
                            "valor": "1569.21"
                        },
                        {
                            "sigla": "PHR",
                            "descricao": "INTERATIVIDADE",
                            "valor": "2708.01"
                        },
                        {
                            "sigla": "PHT",
                            "descricao": "COMFORT TECH",
                            "valor": "---------"
                        },
                        {
                            "sigla": "PN2",
                            "descricao": "CONNECT PACK II",
                            "valor": "---------"
                        },
                        {
                            "sigla": "PN3",
                            "descricao": "CONNECT PACK",
                            "valor": "---------"
                        },
                        {
                            "sigla": "PNT",
                            "descricao": "CONNECT PACK",
                            "valor": "---------"
                        },
                        {
                            "sigla": "1NB",
                            "descricao": "ITEM TECNICO",
                            "valor": "0.00"
                        },
                        {
                            "sigla": "1NL",
                            "descricao": "ITEM TECNICO",
                            "valor": "---------"
                        },
                        {
                            "sigla": "AW5",
                            "descricao": "ITEM TECNICO",
                            "valor": "---------"
                        },
                        {
                            "sigla": "M",
                            "descricao": "PINTURA METALICA",
                            "valor": "1407.80"
                        },
                        {
                            "sigla": "S",
                            "descricao": "PINTURA ESPECIAL",
                            "valor": "439.38"
                        }
                    ]
                },
                {
                    "codigo": "BZ12U4",
                    "descricao": "POLO 1.6 MSI 117HP",
                    "edicao": "4",
                    "valor": "57,540.85",
                    "opcionais": [
                        {
                            "sigla": "PF1",
                            "descricao": "TECH I",
                            "valor": "---------"
                        },
                        {
                            "sigla": "PH1",
                            "descricao": "INTERATIVIDADE",
                            "valor": "---------"
                        },
                        {
                            "sigla": "PHB",
                            "descricao": "INTERATIVIDADE II",
                            "valor": "---------"
                        },
                        {
                            "sigla": "PHR",
                            "descricao": "INTERATIVIDADE",
                            "valor": "---------"
                        },
                        {
                            "sigla": "PHT",
                            "descricao": "COMFORT TECH",
                            "valor": "---------"
                        },
                        {
                            "sigla": "PN2",
                            "descricao": "CONNECT PACK II",
                            "valor": "---------"
                        },
                        {
                            "sigla": "PN3",
                            "descricao": "CONNECT PACK",
                            "valor": "---------"
                        },
                        {
                            "sigla": "PNT",
                            "descricao": "CONNECT PACK",
                            "valor": "---------"
                        },
                        {
                            "sigla": "1NB",
                            "descricao": "ITEM TECNICO",
                            "valor": "---------"
                        },
                        {
                            "sigla": "1NL",
                            "descricao": "ITEM TECNICO",
                            "valor": "---------"
                        },
                        {
                            "sigla": "AW5",
                            "descricao": "ITEM TECNICO",
                            "valor": "---------"
                        },
                        {
                            "sigla": "M",
                            "descricao": "PINTURA METALICA",
                            "valor": "1407.80"
                        },
                        {
                            "sigla": "S",
                            "descricao": "PINTURA ESPECIAL",
                            "valor": "439.38"
                        }
                    ]
                },
                {
                    "codigo": "BZ11B3",
                    "descricao": "POLO SENSE 1.0 TSI AT 128HP",
                    "edicao": "2",
                    "valor": "65,488.06",
                    "opcionais": [
                        {
                            "sigla": "PF1",
                            "descricao": "TECH I",
                            "valor": "---------"
                        },
                        {
                            "sigla": "PH1",
                            "descricao": "INTERATIVIDADE",
                            "valor": "---------"
                        },
                        {
                            "sigla": "PHB",
                            "descricao": "INTERATIVIDADE II",
                            "valor": "---------"
                        },
                        {
                            "sigla": "PHR",
                            "descricao": "INTERATIVIDADE",
                            "valor": "---------"
                        },
                        {
                            "sigla": "PHT",
                            "descricao": "COMFORT TECH",
                            "valor": "---------"
                        },
                        {
                            "sigla": "PN2",
                            "descricao": "CONNECT PACK II",
                            "valor": "---------"
                        },
                        {
                            "sigla": "PN3",
                            "descricao": "CONNECT PACK",
                            "valor": "---------"
                        },
                        {
                            "sigla": "PNT",
                            "descricao": "CONNECT PACK",
                            "valor": "---------"
                        },
                        {
                            "sigla": "1NB",
                            "descricao": "ITEM TECNICO",
                            "valor": "---------"
                        },
                        {
                            "sigla": "1NL",
                            "descricao": "ITEM TECNICO",
                            "valor": "---------"
                        },
                        {
                            "sigla": "AW5",
                            "descricao": "ITEM TECNICO",
                            "valor": "---------"
                        },
                        {
                            "sigla": "M",
                            "descricao": "PINTURA METALICA",
                            "valor": "---------"
                        },
                        {
                            "sigla": "S",
                            "descricao": "PINTURA ESPECIAL",
                            "valor": "0.00"
                        }
                    ]
                },
                {
                    "codigo": "BZ13B3",
                    "descricao": "POLO COMFORTLINE 200 TSI AT 128HP",
                    "edicao": "3",
                    "valor": "66,957.07",
                    "opcionais": [
                        {
                            "sigla": "PF1",
                            "descricao": "TECH I",
                            "valor": "1838.60"
                        },
                        {
                            "sigla": "PH1",
                            "descricao": "INTERATIVIDADE",
                            "valor": "---------"
                        },
                        {
                            "sigla": "PHB",
                            "descricao": "INTERATIVIDADE II",
                            "valor": "---------"
                        },
                        {
                            "sigla": "PHR",
                            "descricao": "INTERATIVIDADE",
                            "valor": "---------"
                        },
                        {
                            "sigla": "PHT",
                            "descricao": "COMFORT TECH",
                            "valor": "4851.48"
                        },
                        {
                            "sigla": "PN2",
                            "descricao": "CONNECT PACK II",
                            "valor": "---------"
                        },
                        {
                            "sigla": "PN3",
                            "descricao": "CONNECT PACK",
                            "valor": "---------"
                        },
                        {
                            "sigla": "PNT",
                            "descricao": "CONNECT PACK",
                            "valor": "---------"
                        },
                        {
                            "sigla": "1NB",
                            "descricao": "ITEM TECNICO",
                            "valor": "---------"
                        },
                        {
                            "sigla": "1NL",
                            "descricao": "ITEM TECNICO",
                            "valor": "0.00"
                        },
                        {
                            "sigla": "AW5",
                            "descricao": "ITEM TECNICO",
                            "valor": "0.00"
                        },
                        {
                            "sigla": "M",
                            "descricao": "PINTURA METALICA",
                            "valor": "1469.01"
                        },
                        {
                            "sigla": "S",
                            "descricao": "PINTURA ESPECIAL",
                            "valor": "458.48"
                        }
                    ]
                },
                {
                    "codigo": "BZ14B3",
                    "descricao": "POLO HIGHLINE 200 TSI AT 128HP",
                    "edicao": "5",
                    "valor": "77,689.29",
                    "opcionais": [
                        {
                            "sigla": "PF1",
                            "descricao": "TECH I",
                            "valor": "---------"
                        },
                        {
                            "sigla": "PH1",
                            "descricao": "INTERATIVIDADE",
                            "valor": "---------"
                        },
                        {
                            "sigla": "PHB",
                            "descricao": "INTERATIVIDADE II",
                            "valor": "---------"
                        },
                        {
                            "sigla": "PHR",
                            "descricao": "INTERATIVIDADE",
                            "valor": "---------"
                        },
                        {
                            "sigla": "PHT",
                            "descricao": "COMFORT TECH",
                            "valor": "---------"
                        },
                        {
                            "sigla": "PN2",
                            "descricao": "CONNECT PACK II",
                            "valor": "---------"
                        },
                        {
                            "sigla": "PN3",
                            "descricao": "CONNECT PACK",
                            "valor": "---------"
                        },
                        {
                            "sigla": "PNT",
                            "descricao": "CONNECT PACK",
                            "valor": "---------"
                        },
                        {
                            "sigla": "1NB",
                            "descricao": "ITEM TECNICO",
                            "valor": "---------"
                        },
                        {
                            "sigla": "1NL",
                            "descricao": "ITEM TECNICO",
                            "valor": "---------"
                        },
                        {
                            "sigla": "AW5",
                            "descricao": "ITEM TECNICO",
                            "valor": "---------"
                        },
                        {
                            "sigla": "M",
                            "descricao": "PINTURA METALICA",
                            "valor": "1469.01"
                        },
                        {
                            "sigla": "S",
                            "descricao": "PINTURA ESPECIAL",
                            "valor": "458.48"
                        }
                    ]
                }
            ]
        },
        {
            "metaDados": {
                "titulo": "LISTA DE PREÇOS - PORTADORES DE DEFICIÊNCIA FÍSICA (ISENÇÃO DE IPI)",
                "meyer": "WZ520R",
                "emissao": "010/20",
                "validade": "01/01/2020",
                "icms": "SUSPENSO IPI"
            },
            "carros": [
                {
                    "codigo": "BZ22U4",
                    "descricao": "VIRTUS 1.6 MSI 117HP",
                    "edicao": "4",
                    "valor": "61,347.32",
                    "opcionais": [
                        {
                            "sigla": "PF1",
                            "descricao": "TECH I",
                            "valor": "---------"
                        },
                        {
                            "sigla": "PHT",
                            "descricao": "COMFORT TECH",
                            "valor": "---------"
                        },
                        {
                            "sigla": "1NL",
                            "descricao": "ITEM TECNICO",
                            "valor": "---------"
                        },
                        {
                            "sigla": "AW5",
                            "descricao": "ITEM TECNICO",
                            "valor": "---------"
                        },
                        {
                            "sigla": "M",
                            "descricao": "PINTURA METALICA",
                            "valor": "1407.80"
                        },
                        {
                            "sigla": "S",
                            "descricao": "PINTURA ESPECIAL",
                            "valor": "439.38"
                        }
                    ]
                },
                {
                    "codigo": "BZ21U3",
                    "descricao": "VIRTUS SENSE 1.6 MSI AT 117HP",
                    "edicao": "2",
                    "valor": "61,414.57",
                    "opcionais": [
                        {
                            "sigla": "PF1",
                            "descricao": "TECH I",
                            "valor": "---------"
                        },
                        {
                            "sigla": "PHT",
                            "descricao": "COMFORT TECH",
                            "valor": "---------"
                        },
                        {
                            "sigla": "1NL",
                            "descricao": "ITEM TECNICO",
                            "valor": "---------"
                        },
                        {
                            "sigla": "AW5",
                            "descricao": "ITEM TECNICO",
                            "valor": "---------"
                        },
                        {
                            "sigla": "M",
                            "descricao": "PINTURA METALICA",
                            "valor": "---------"
                        },
                        {
                            "sigla": "S",
                            "descricao": "PINTURA ESPECIAL",
                            "valor": "0.00"
                        }
                    ]
                },
                {
                    "codigo": "BZ22U3",
                    "descricao": "VIRTUS 1.6 MSI AT 117HP",
                    "edicao": "4",
                    "valor": "66,288.11",
                    "opcionais": [
                        {
                            "sigla": "PF1",
                            "descricao": "TECH I",
                            "valor": "---------"
                        },
                        {
                            "sigla": "PHT",
                            "descricao": "COMFORT TECH",
                            "valor": "---------"
                        },
                        {
                            "sigla": "1NL",
                            "descricao": "ITEM TECNICO",
                            "valor": "---------"
                        },
                        {
                            "sigla": "AW5",
                            "descricao": "ITEM TECNICO",
                            "valor": "---------"
                        },
                        {
                            "sigla": "M",
                            "descricao": "PINTURA METALICA",
                            "valor": "1407.80"
                        },
                        {
                            "sigla": "S",
                            "descricao": "PINTURA ESPECIAL",
                            "valor": "439.38"
                        }
                    ]
                },
                {
                    "codigo": "BZ23B3",
                    "descricao": "VIRTUS COMFORTLINE 200 TSI AT 128HP",
                    "edicao": "3",
                    "valor": "73,534.88",
                    "opcionais": [
                        {
                            "sigla": "PF1",
                            "descricao": "TECH I",
                            "valor": "1796.50"
                        },
                        {
                            "sigla": "PHT",
                            "descricao": "COMFORT TECH",
                            "valor": "4650.31"
                        },
                        {
                            "sigla": "1NL",
                            "descricao": "ITEM TECNICO",
                            "valor": "0.00"
                        },
                        {
                            "sigla": "AW5",
                            "descricao": "ITEM TECNICO",
                            "valor": "0.00"
                        },
                        {
                            "sigla": "M",
                            "descricao": "PINTURA METALICA",
                            "valor": "1469.01"
                        },
                        {
                            "sigla": "S",
                            "descricao": "PINTURA ESPECIAL",
                            "valor": "458.48"
                        }
                    ]
                },
                {
                    "codigo": "BZ24B3",
                    "descricao": "VIRTUS HIGHLINE 200 TSI AT 128HP",
                    "edicao": "5",
                    "valor": "84,281.14",
                    "opcionais": [
                        {
                            "sigla": "PF1",
                            "descricao": "TECH I",
                            "valor": "---------"
                        },
                        {
                            "sigla": "PHT",
                            "descricao": "COMFORT TECH",
                            "valor": "---------"
                        },
                        {
                            "sigla": "1NL",
                            "descricao": "ITEM TECNICO",
                            "valor": "---------"
                        },
                        {
                            "sigla": "AW5",
                            "descricao": "ITEM TECNICO",
                            "valor": "---------"
                        },
                        {
                            "sigla": "M",
                            "descricao": "PINTURA METALICA",
                            "valor": "1469.01"
                        },
                        {
                            "sigla": "S",
                            "descricao": "PINTURA ESPECIAL",
                            "valor": "458.48"
                        }
                    ]
                }
            ]
        }
    ]
}